{
  "project_info": {
    "project_number": "139621749276",
    "firebase_url": "https://ecadema-b4ed2.firebaseio.com",
    "project_id": "ecadema-b4ed2",
    "storage_bucket": "ecadema-b4ed2.appspot.com"
  },
  "client": [
    {
      "client_info": {
        "mobilesdk_app_id": "1:139621749276:android:35416d53c70676c597c5d9",
        "android_client_info": {
          "package_name": "com.ecadema.activities"
        }
      },
      "oauth_client": [
        {
          "client_id": "139621749276-ier2il52etpsopd3jjop9njlu4a1775j.apps.googleusercontent.com",
          "client_type": 1,
          "android_info": {
            "package_name": "com.ecadema.activities",
            "certificate_hash": "dbf95ce59165afe04136a888affb2c8cbc929fd8"
          }
        },
        {
          "client_id": "139621749276-o8enol47opee5f7i9nvb9gla87ngcdc7.apps.googleusercontent.com",
          "client_type": 1,
          "android_info": {
            "package_name": "com.ecadema.activities",
            "certificate_hash": "12e36cb5265b7e6c5be677338531eb86ee56c916"
          }
        },
        {
          "client_id": "139621749276-srminb1csjvtbnjvq63o62tm92rivcet.apps.googleusercontent.com",
          "client_type": 3
        }
      ],
      "api_key": [
        {
          "current_key": "AIzaSyBSINyG5ergEfDb_A7B7MNIv9KjaNh3o6o"
        }
      ],
      "services": {
        "appinvite_service": {
          "other_platform_oauth_client": [
            {
              "client_id": "139621749276-srminb1csjvtbnjvq63o62tm92rivcet.apps.googleusercontent.com",
              "client_type": 3
            },
            {
              "client_id": "139621749276-efkbibva0hkum60c5m8t1bl75bkja6on.apps.googleusercontent.com",
              "client_type": 2,
              "ios_info": {
                "bundle_id": "com.ecadema.app"
              }
            }
          ]
        }
      }
    },
    {
      "client_info": {
        "mobilesdk_app_id": "1:139621749276:android:c6c10051486a660297c5d9",
        "android_client_info": {
          "package_name": "com.ecadema.app"
        }
      },
      "oauth_client": [
        {
          "client_id": "139621749276-srminb1csjvtbnjvq63o62tm92rivcet.apps.googleusercontent.com",
          "client_type": 3
        }
      ],
      "api_key": [
        {
          "current_key": "AIzaSyBSINyG5ergEfDb_A7B7MNIv9KjaNh3o6o"
        }
      ],
      "services": {
        "appinvite_service": {
          "other_platform_oauth_client": [
            {
              "client_id": "139621749276-srminb1csjvtbnjvq63o62tm92rivcet.apps.googleusercontent.com",
              "client_type": 3
            },
            {
              "client_id": "139621749276-efkbibva0hkum60c5m8t1bl75bkja6on.apps.googleusercontent.com",
              "client_type": 2,
              "ios_info": {
                "bundle_id": "com.ecadema.app"
              }
            }
          ]
        }
      }
    }
  ],
  "configuration_version": "1"
}